Access the Our World in Data Chart API • owidapi
…
You can install the development version of owidapi from GitHub with:

# install.packages("pak")
pak::pak("tidy-intelligence/r-owidapi")

Usage

Load the package:

library(owidapi)

Download the full life expectancy dataset:

owid_get("life-expectancy")
#> # A tibble: 21,565 × 4
#>    entity_name entity_id  year life_expectancy_0__sex_total__age_0
#>    <chr>       <chr>     <int>                               <dbl>
#>  1 Afghanistan AFG        1950                                28.2
#>  2 Afghanistan AFG        1951                                28.6
#>  3 Afghanistan AFG        1952                                29.0
#>  4 Afghanistan AFG        1953                                29.5
#>  5 Afghanistan AFG        1954                                29.7
#>  6 Afghanistan AFG        1955                                30.4
#>  7 Afghanistan AFG        1956                                30.8
#>  8 Afghanistan AFG        1957                                31.3
#>  9 Afghanistan AFG        1958                                31.8
#> 10 Afghanistan AFG        1959                                32.3
#> # ℹ 21,555 more rows

Get life expectancy data for Australia, Austria, and Germany:

owid_get("life-expectancy", entities = c("AUS", "AUT", "GER"))
#> # A tibble: 190 × 4
#>    entity_name entity_id  year life_expectancy_0__sex_total__age_0
#>    <chr>       <chr>     <int>                               <dbl>
#>  1 Australia   AUS        1885                                49.0
#>  2 Australia   AUS        1895                                53.0
#>  3 Australia   AUS        1905                                57  
#>  4 Australia   AUS        1921                                61.0
#>  5 Australia   AUS        1922                                62.8
#>  6 Australia   AUS        1923                                61.7
#>  7 Australia   AUS        1924                                62.5
#>  8 Australia   AUS        1925                                63.2
#>  9 Australia   AUS        1926                                62.9
#> 10 Australia   AUS        1927                                62.8
#> # ℹ 180 more rows
…
Download data directly using an URL from the website:

url <- paste0(
  "https://ourworldindata.org/grapher/civil-liberties-score-fh",
  "?tab=chart&time=earliest..2023&country=ARG~AUS~BWA~CHN~ALB~DEU"
)
owid_get(url = url)
#> # A tibble: 114 × 4
#>    entity_name entity_id  year civil.liberties.score
#>    <chr>       <chr>     <int>                 <int>
#>  1 Albania     ALB        2005                    38
#>  2 Albania     ALB        2006                    38
#>  3 Albania     ALB        2007                    39
#>  4 Albania     ALB        2008                    40
#>  5 Albania     ALB        2009                    39
#>  6 Albania     ALB        2010                    40
#>  7 Albania     ALB        2011                    39
#>  8 Albania     ALB        2012                    39
#>  9 Albania     ALB        2013                    40
#> 10 Albania     ALB        2014                    40
#> # ℹ 104 more rows
…
The only difference is in the originalChartUrl value:

all.equal(metadata, metadata_url)
#> [1] "Length mismatch: comparison on first 3 components"                     
#> [2] "Component \"chart\": Component \"originalChartUrl\": 1 string mismatch"

If you want to fetch the full catalog of available charts:

catalog <- owid_get_catalog()
catalog
#> # A tibble: 5,012 × 18
#>       id slug     type  config created_at updated_at last_edited_at published_at
#>    <int> <chr>    <chr> <chr>  <chr>      <chr>      <chr>          <chr>       
#>  1  7968 militar… Line… "{\"i… 2024-07-3… 2024-07-3… 2024-07-31 08… "2024-07-30…
#>  2  7967 militar… Line… "{\"i… 2024-07-3… 2024-07-3… 2024-07-30 12… ""          
#>  3  7966 militar… Line… "{\"i… 2024-07-3… 2024-07-3… 2024-07-30 12… ""          
#>  4  7965 militar… Line… "{\"i… 2024-07-3… 2024-07-3… 2024-07-31 08… "2024-07-30…
#>  5  7964 militar… Line… "{\"i… 2024-07-3… 2024-07-3… 2024-07-31 10… "2024-07-30…
#>  6  7963 relativ… Stac… "{\"i… 2024-07-2… 2024-07-2… 2024-07-29 15… ""          
#>  7  7962 tree-co… Stac… "{\"i… 2024-07-2… 2024-07-2… 2024-07-29 15… ""          
#>  8  7961 hdi-lan… Line… "{\"i… 2024-07-2… 2024-07-2… 2024-07-28 15… "2024-07-28…
#>  9  7960 hdi-per… Scat… "{\"i… 2024-07-2… 2024-07-2… 2024-07-28 13… "2024-07-28…
#> 10  7959 are-con… Line… "{\"i… 2024-07-2… 2024-07-2… 2024-07-28 12… ""          
#> # ℹ 5,002 more rows
#> # ℹ 10 more variables: last_edited_by_user_id <int>,
#> #   last_edited_by_user_id_label <chr>, published_by_user_id <int>,
#> #   published_by_user_id_label <chr>, is_indexable <int>, title <chr>,
#> #   subtitle <chr>, note <chr>, title_plus_variant <chr>,
#> #   config_with_defaults <chr>

To search for keywords in the catalog, you can use the following helper:

owid_search(catalog, c("climate", "carbon"))
#> # A tibble: 210 × 18
#>       id slug     type  config created_at updated_at last_edited_at published_at
#>    <int> <chr>    <chr> <chr>  <chr>      <chr>      <chr>          <chr>       
#>  1  7953 hdi-vs-… Line… "{\"i… 2024-07-2… 2024-07-2… 2024-07-28 13… "2024-07-26…
#>  2  7947 low-car… Scat… "{\"i… 2024-07-2… 2024-07-2… 2024-07-22 10… "2024-07-22…
#>  3  7943 tempera… Scat… "{\"i… 2024-07-1… 2024-07-1… 2024-07-19 08… ""          
#>  4  7926 global-… Stac… "{\"i… 2024-07-0… 2024-07-1… 2024-07-19 09… "2024-07-03…
#>  5  7925 spring-… Stac… "{\"i… 2024-07-0… 2024-07-0… 2024-07-05 08… "2024-07-03…
#>  6  7924 autumn-… Stac… "{\"i… 2024-07-0… 2024-07-0… 2024-07-05 08… "2024-07-03…
#>  7  7923 winter-… Stac… "{\"i… 2024-07-0… 2024-07-0… 2024-07-05 08… "2024-07-03…
#>  8  7922 summer-… Stac… "{\"i… 2024-07-0… 2024-07-0… 2024-07-05 08… "2024-07-03…
#>  9  7921 country… Stac… "{\"i… 2024-07-0… 2024-07-1… 2024-07-10 10… "2024-07-03…
#> 10  7917 materia… Stac… "{\"i… 2024-07-0… 2024-07-2… 2024-07-24 11… "2024-07-14…
#> # ℹ 200 more rows
#> # ℹ 10 more variables: last_edited_by_user_id <int>,
#> #   last_edited_by_user_id_label <chr>, published_by_user_id <int>,
#> #   published_by_user_id_label <chr>, is_indexable <int>, title <chr>,
#> #   subtitle <chr>, note <chr>, title_plus_variant <chr>,
#> #   config_with_defaults <chr>
…
