…
## Usage

Load the package:

``` r
library(owidapi)
```

Download the full life expectancy dataset:

``` r
owid_get("life-expectancy")
#> # A tibble: 21,565 × 4
#>    entity      code   year life_expectancy_0__sex_total__age_0
#>    <chr>       <chr> <int>                               <dbl>
#>  1 Afghanistan AFG    1950                                28.2
#>  2 Afghanistan AFG    1951                                28.6
#>  3 Afghanistan AFG    1952                                29.0
#>  4 Afghanistan AFG    1953                                29.5
#>  5 Afghanistan AFG    1954                                29.7
#>  6 Afghanistan AFG    1955                                30.4
#>  7 Afghanistan AFG    1956                                30.8
#>  8 Afghanistan AFG    1957                                31.3
#>  9 Afghanistan AFG    1958                                31.8
#> 10 Afghanistan AFG    1959                                32.3
#> # ℹ 21,555 more rows
```

Get life expectancy data for Australia, Austria, and Germany:

``` r
owid_get("life-expectancy", entities = c("AUS", "AUT", "GER"))
#> # A tibble: 190 × 4
#>    entity    code   year life_expectancy_0__sex_total__age_0
#>    <chr>     <chr> <int>                               <dbl>
#>  1 Australia AUS    1885                                49.0
#>  2 Australia AUS    1895                                53.0
#>  3 Australia AUS    1905                                57  
#>  4 Australia AUS    1921                                61.0
#>  5 Australia AUS    1922                                62.8
#>  6 Australia AUS    1923                                61.7
#>  7 Australia AUS    1924                                62.5
#>  8 Australia AUS    1925                                63.2
#>  9 Australia AUS    1926                                62.9
#> 10 Australia AUS    1927                                62.8
#> # ℹ 180 more rows
```
…
Download data directly using a URL:

``` r
owid_get(
  url = paste0(
    "https://ourworldindata.org/grapher/civil-liberties-score-fh",
    "?tab=chart&time=earliest..2023&country=ARG~AUS~BWA~CHN~ALB~DEU"
  )
)
#> # A tibble: 3,971 × 4
#>    entity   code      year civil.liberties.score
#>    <chr>    <chr>    <int>                 <int>
#>  1 Abkhazia OWID_ABK  2005                    21
#>  2 Abkhazia OWID_ABK  2006                    21
#>  3 Abkhazia OWID_ABK  2007                    21
#>  4 Abkhazia OWID_ABK  2008                    21
#>  5 Abkhazia OWID_ABK  2009                    21
#>  6 Abkhazia OWID_ABK  2010                    22
#>  7 Abkhazia OWID_ABK  2011                    22
#>  8 Abkhazia OWID_ABK  2012                    22
#>  9 Abkhazia OWID_ABK  2013                    22
#> 10 Abkhazia OWID_ABK  2014                    23
#> # ℹ 3,961 more rows
```
